Homework 6: Data Exploration in R
================
Lalita Sharkey

Date: 11/05/2019

## Part A - Chapter 5

``` r
library(nycflights13)
flights
```

    ## # A tibble: 336,776 x 19
    ##     year month   day dep_time sched_dep_time dep_delay arr_time
    ##    <int> <int> <int>    <int>          <int>     <dbl>    <int>
    ##  1  2013     1     1      517            515         2      830
    ##  2  2013     1     1      533            529         4      850
    ##  3  2013     1     1      542            540         2      923
    ##  4  2013     1     1      544            545        -1     1004
    ##  5  2013     1     1      554            600        -6      812
    ##  6  2013     1     1      554            558        -4      740
    ##  7  2013     1     1      555            600        -5      913
    ##  8  2013     1     1      557            600        -3      709
    ##  9  2013     1     1      557            600        -3      838
    ## 10  2013     1     1      558            600        -2      753
    ## # ... with 336,766 more rows, and 12 more variables: sched_arr_time <int>,
    ## #   arr_delay <dbl>, carrier <chr>, flight <int>, tailnum <chr>,
    ## #   origin <chr>, dest <chr>, air_time <dbl>, distance <dbl>, hour <dbl>,
    ## #   minute <dbl>, time_hour <dttm>
…
  - Group the records by tail number
  - Get the delay flights records by filtering the on-time departure
  - Find mean of delay flights

<!-- end list -->

``` r
flights %>% group_by(tailnum) %>%
  filter(dep_delay > 0) %>%
  summarize(avg_delay = mean(dep_delay)) %>%
  arrange(desc(avg_delay))
```

    ## # A tibble: 3,885 x 2
    ##    tailnum avg_delay
    ##    <chr>       <dbl>
    ##  1 N844MH       297 
    ##  2 N452UW       291 
    ##  3 N922EV       274 
    ##  4 N587NW       272 
    ##  5 N911DA       268 
    ##  6 N665MQ       268.
    ##  7 N673MQ       257 
    ##  8 N851NW       233 
    ##  9 N654UA       227 
    ## 10 N550NW       212.
    ## # ... with 3,875 more rows
…
#### Answer

``` r
flights$flt_num = paste(flights$carrier, flights$flight)
  
flights %>% filter(arr_delay > 0 | dep_delay > 0) %>% group_by(dest, flt_num) %>% 
  select(dest, arr_delay, dep_delay, flt_num)  %>%
  mutate(total_delay = sum(arr_delay + dep_delay, na.rm = TRUE),
         prop_delay = (arr_delay + dep_delay)/total_delay)
```

    ## # A tibble: 169,133 x 6
    ## # Groups:   dest, flt_num [9,615]
    ##    dest  arr_delay dep_delay flt_num total_delay prop_delay
    ##    <chr>     <dbl>     <dbl> <chr>         <dbl>      <dbl>
    ##  1 IAH          11         2 UA 1545         532    0.0244 
    ##  2 IAH          20         4 UA 1714        1608    0.0149 
    ##  3 MIA          33         2 AA 1141         951    0.0368 
    ##  4 ORD          12        -4 UA 1696           8    1      
    ##  5 FLL          19        -5 B6 507         2023    0.00692
    ##  6 ORD           8        -2 AA 301          656    0.00915
    ##  7 LAX           7        -2 UA 194          -13   -0.385  
    ##  8 DFW          31        -1 AA 707         2080    0.0144 
    ##  9 ATL          12         0 MQ 4650        1287    0.00932
    ## 10 PBI          -6         1 B6 343           27   -0.185  
    ## # ... with 169,123 more rows

## Part B - Chapter 7

``` r
diamonds
```

    ## # A tibble: 53,940 x 10
    ##    carat cut       color clarity depth table price     x     y     z
    ##    <dbl> <ord>     <ord> <ord>   <dbl> <dbl> <int> <dbl> <dbl> <dbl>
    ##  1 0.23  Ideal     E     SI2      61.5    55   326  3.95  3.98  2.43
    ##  2 0.21  Premium   E     SI1      59.8    61   326  3.89  3.84  2.31
    ##  3 0.23  Good      E     VS1      56.9    65   327  4.05  4.07  2.31
    ##  4 0.290 Premium   I     VS2      62.4    58   334  4.2   4.23  2.63
    ##  5 0.31  Good      J     SI2      63.3    58   335  4.34  4.35  2.75
    ##  6 0.24  Very Good J     VVS2     62.8    57   336  3.94  3.96  2.48
    ##  7 0.24  Very Good I     VVS1     62.3    57   336  3.95  3.98  2.47
    ##  8 0.26  Very Good H     SI1      61.9    55   337  4.07  4.11  2.53
    ##  9 0.22  Fair      E     VS2      65.1    61   337  3.87  3.78  2.49
    ## 10 0.23  Very Good H     VS1      59.4    61   338  4     4.05  2.39
    ## # ... with 53,930 more rows
…
